…
``` r
met_d <- met_avg_med %>%
  mutate(d = sqrt((temp.x - temp.y)^2 + (wind.sp.x - wind.sp.y)^2 + (atm.press.x - atm.press.y)^2))
```

``` r
repre_state <- met_d %>%
  group_by(STATE) %>%
  slice_min(order_by = d) %>%
  summarise(STATE, USAFID, lat, lon, d)
repre_state
```

    ## # A tibble: 46 × 5
    ##    STATE USAFID   lat    lon      d
    ##    <chr>  <int> <dbl>  <dbl>  <dbl>
    ##  1 AL    722286  33.2  -87.6 0.0561
    ##  2 AR    723407  35.8  -90.6 0.461 
    ##  3 AZ    722745  32.2 -111.  0.233 
    ##  4 CA    722970  33.8 -118.  0.300 
    ##  5 CO    724767  37.3 -109.  0.944 
    ##  6 CT    725087  41.7  -72.7 0.346 
    ##  7 DE    724180  39.7  -75.6 0     
    ##  8 FL    722106  26.6  -81.9 0.0477
    ##  9 GA    723160  31.5  -82.5 0.312 
    ## 10 IA    725480  42.6  -92.4 0.199 
    ## # … with 36 more rows
…
``` r
met_d_avg <- met_avg_avg %>%
  mutate(d = sqrt((lat.x - lat.y)^2 + (lon.x - lon.y)^2))
```

``` r
mid_state <- met_d_avg %>%
  group_by(STATE) %>%
  slice_min(order_by = d) %>%
  summarise(STATE, USAFID, lat = lat.x, lon = lon.x, d)
mid_state
```

    ## # A tibble: 48 × 5
    ##    STATE USAFID   lat    lon      d
    ##    <chr>  <int> <dbl>  <dbl>  <dbl>
    ##  1 AL    722265  32.4  -86.4 0.459 
    ##  2 AR    720401  35.6  -92.4 0.388 
    ##  3 AZ    722783  33.5 -112.  0.383 
    ##  4 CA    723898  36.3 -120.  0.154 
    ##  5 CO    726396  39.0 -106.  0.138 
    ##  6 CT    725027  41.5  -72.8 0.0764
    ##  7 DE    724088  39.1  -75.5 0.0347
    ##  8 FL    722014  28.5  -82.5 0.197 
    ##  9 GA    722175  32.6  -83.6 0.193 
    ## 10 IA    725472  42.0  -93.6 0.241 
    ## # … with 38 more rows
…
